%!PS-Adobe-3.0
%%Creator: PCBNEW
%%CreationDate: Wed Jun 06 11:31:05 2018
%%Title: E:\OneDrive - University of Bergen\RD53\kicad\Displayport breakout board\Gerber\Displayport_breakout-NPTH-drl_map.ps
%%Pages: 1
%%PageOrder: Ascend
%%BoundingBox: 0 0 596 842
%%DocumentMedia: A4 595 842 0 () ()
%%Orientation: Landscape
%%EndComments
%%BeginProlog
/line { newpath moveto lineto stroke } bind def
/cir0 { newpath 0 360 arc stroke } bind def
/cir1 { newpath 0 360 arc gsave fill grestore stroke } bind def
/cir2 { newpath 0 360 arc gsave fill grestore stroke } bind def
/arc0 { newpath arc stroke } bind def
/arc1 { newpath 4 index 4 index moveto arc closepath gsave fill
    grestore stroke } bind def
/arc2 { newpath 4 index 4 index moveto arc closepath gsave fill
    grestore stroke } bind def
/poly0 { stroke } bind def
/poly1 { closepath gsave fill grestore stroke } bind def
/poly2 { closepath gsave fill grestore stroke } bind def
/rect0 { rectstroke } bind def
/rect1 { rectfill } bind def
/rect2 { rectfill } bind def
/linemode0 { 0 setlinecap 0 setlinejoin 0 setlinewidth } bind def
/linemode1 { 1 setlinecap 1 setlinejoin } bind def
/dashedline { [200] 100 setdash } bind def
/solidline { [] 0 setdash } bind def
/phantomshow { moveto
    /KicadFont findfont 0.000001 scalefont setfont
    show } bind def
/textshow { gsave
    findfont exch scalefont setfont concat 1 scale 0 0 moveto show
    } bind def
/reencodefont {
  findfont dup length dict begin
  { 1 index /FID ne
    { def }
    { pop pop } ifelse
  } forall
  /Encoding ISOLatin1Encoding def
  currentdict
  end } bind def
/KicadFont /Helvetica reencodefont definefont pop
/KicadFont-Bold /Helvetica-Bold reencodefont definefont pop
/KicadFont-Oblique /Helvetica-Oblique reencodefont definefont pop
/KicadFont-BoldOblique /Helvetica-BoldOblique reencodefont definefont pop
%%EndProlog
%%Page: 1 1
%%BeginPageSetup
gsave
0.0072 0.0072 scale
linemode1
82680 0 translate 90 rotate
43.391 setlinewidth
%%EndPageSetup
0 0 0 setrgbcolor
51.2493 setlinewidth
newpath
48983.9 78717.4 moveto
67946.1 78717.4 lineto
stroke
0 0 0 setrgbcolor
newpath
48983.9 37034.6 moveto
48983.9 78717.4 lineto
stroke
0 0 0 setrgbcolor
newpath
67946.1 37034.6 moveto
48983.9 37034.6 lineto
stroke
0 0 0 setrgbcolor
newpath
67946.1 78717.4 moveto
67946.1 37034.6 lineto
stroke
78.7401 setlinewidth
newpath
49974.7 77726.5 moveto
51068 76633.2 lineto
stroke
newpath
51068 77726.5 moveto
49974.7 76633.2 lineto
stroke
newpath
49974.7 39118.8 moveto
51068 38025.5 lineto
stroke
newpath
51068 39118.8 moveto
49974.7 38025.5 lineto
stroke
newpath
60737.1 62180.9 moveto
61830.4 61087.6 lineto
stroke
newpath
61830.4 62180.9 moveto
60737.1 61087.6 lineto
stroke
newpath
60737.1 53810.2 moveto
61830.4 52716.9 lineto
stroke
newpath
61830.4 53810.2 moveto
60737.1 52716.9 lineto
stroke
newpath
62957.9 77726.5 moveto
64051.2 76633.2 lineto
stroke
newpath
64051.2 77726.5 moveto
62957.9 76633.2 lineto
stroke
newpath
62957.9 39118.8 moveto
64051.2 38025.5 lineto
stroke
newpath
64051.2 39118.8 moveto
62957.9 38025.5 lineto
stroke
118.11 setlinewidth
newpath
50026.9 35175.5 moveto
50026.9 36356.6 lineto
50308.1 36356.6 lineto
50476.8 36300.3 lineto
50589.3 36187.9 lineto
50645.6 36075.4 lineto
50701.8 35850.4 lineto
50701.8 35681.7 lineto
50645.6 35456.7 lineto
50589.3 35344.2 lineto
50476.8 35231.7 lineto
50308.1 35175.5 lineto
50026.9 35175.5 lineto
stroke
newpath
51208 35175.5 moveto
51208 35962.9 lineto
stroke
newpath
51208 35737.9 moveto
51264.2 35850.4 lineto
51320.5 35906.6 lineto
51433 35962.9 lineto
51545.4 35962.9 lineto
stroke
newpath
51939.1 35175.5 moveto
51939.1 35962.9 lineto
stroke
newpath
51939.1 36356.6 moveto
51882.9 36300.3 lineto
51939.1 36244.1 lineto
51995.4 36300.3 lineto
51939.1 36356.6 lineto
51939.1 36244.1 lineto
stroke
newpath
52670.3 35175.5 moveto
52557.8 35231.7 lineto
52501.6 35344.2 lineto
52501.6 36356.6 lineto
stroke
newpath
53289 35175.5 moveto
53176.5 35231.7 lineto
53120.2 35344.2 lineto
53120.2 36356.6 lineto
stroke
newpath
54638.8 35175.5 moveto
54638.8 36356.6 lineto
55032.5 35512.9 lineto
55426.2 36356.6 lineto
55426.2 35175.5 lineto
stroke
newpath
56494.8 35175.5 moveto
56494.8 35794.2 lineto
56438.6 35906.6 lineto
56326.1 35962.9 lineto
56101.1 35962.9 lineto
55988.6 35906.6 lineto
stroke
newpath
56494.8 35231.7 moveto
56382.3 35175.5 lineto
56101.1 35175.5 lineto
55988.6 35231.7 lineto
55932.4 35344.2 lineto
55932.4 35456.7 lineto
55988.6 35569.2 lineto
56101.1 35625.4 lineto
56382.3 35625.4 lineto
56494.8 35681.7 lineto
stroke
newpath
57057.2 35962.9 moveto
57057.2 34781.8 lineto
stroke
newpath
57057.2 35906.6 moveto
57169.7 35962.9 lineto
57394.7 35962.9 lineto
57507.2 35906.6 lineto
57563.4 35850.4 lineto
57619.7 35737.9 lineto
57619.7 35400.5 lineto
57563.4 35288 lineto
57507.2 35231.7 lineto
57394.7 35175.5 lineto
57169.7 35175.5 lineto
57057.2 35231.7 lineto
stroke
newpath
58125.9 35288 moveto
58182.1 35231.7 lineto
58125.9 35175.5 lineto
58069.6 35231.7 lineto
58125.9 35288 lineto
58125.9 35175.5 lineto
stroke
newpath
58125.9 35906.6 moveto
58182.1 35850.4 lineto
58125.9 35794.2 lineto
58069.6 35850.4 lineto
58125.9 35906.6 lineto
58125.9 35794.2 lineto
stroke
newpath
47864.9 33776.1 moveto
48958.3 32682.8 lineto
stroke
newpath
48958.3 33776.1 moveto
47864.9 32682.8 lineto
stroke
newpath
49914.4 33876.3 moveto
50645.6 33876.3 lineto
50251.8 33426.3 lineto
50420.6 33426.3 lineto
50533.1 33370.1 lineto
50589.3 33313.8 lineto
50645.6 33201.4 lineto
50645.6 32920.1 lineto
50589.3 32807.7 lineto
50533.1 32751.4 lineto
50420.6 32695.2 lineto
50083.1 32695.2 lineto
49970.6 32751.4 lineto
49914.4 32807.7 lineto
stroke
newpath
51151.7 32807.7 moveto
51208 32751.4 lineto
51151.7 32695.2 lineto
51095.5 32751.4 lineto
51151.7 32807.7 lineto
51151.7 32695.2 lineto
stroke
newpath
51657.9 33763.8 moveto
51714.2 33820 lineto
51826.7 33876.3 lineto
52107.9 33876.3 lineto
52220.4 33820 lineto
52276.6 33763.8 lineto
52332.8 33651.3 lineto
52332.8 33538.8 lineto
52276.6 33370.1 lineto
51601.7 32695.2 lineto
52332.8 32695.2 lineto
stroke
newpath
53064 33876.3 moveto
53176.5 33876.3 lineto
53289 33820 lineto
53345.2 33763.8 lineto
53401.5 33651.3 lineto
53457.7 33426.3 lineto
53457.7 33145.1 lineto
53401.5 32920.1 lineto
53345.2 32807.7 lineto
53289 32751.4 lineto
53176.5 32695.2 lineto
53064 32695.2 lineto
52951.5 32751.4 lineto
52895.3 32807.7 lineto
52839 32920.1 lineto
52782.8 33145.1 lineto
52782.8 33426.3 lineto
52839 33651.3 lineto
52895.3 33763.8 lineto
52951.5 33820 lineto
53064 33876.3 lineto
stroke
newpath
53963.9 32695.2 moveto
53963.9 33482.6 lineto
stroke
newpath
53963.9 33370.1 moveto
54020.1 33426.3 lineto
54132.6 33482.6 lineto
54301.3 33482.6 lineto
54413.8 33426.3 lineto
54470.1 33313.8 lineto
54470.1 32695.2 lineto
stroke
newpath
54470.1 33313.8 moveto
54526.3 33426.3 lineto
54638.8 33482.6 lineto
54807.5 33482.6 lineto
54920 33426.3 lineto
54976.3 33313.8 lineto
54976.3 32695.2 lineto
stroke
newpath
55538.7 32695.2 moveto
55538.7 33482.6 lineto
stroke
newpath
55538.7 33370.1 moveto
55594.9 33426.3 lineto
55707.4 33482.6 lineto
55876.1 33482.6 lineto
55988.6 33426.3 lineto
56044.9 33313.8 lineto
56044.9 32695.2 lineto
stroke
newpath
56044.9 33313.8 moveto
56101.1 33426.3 lineto
56213.6 33482.6 lineto
56382.3 33482.6 lineto
56494.8 33426.3 lineto
56551.1 33313.8 lineto
56551.1 32695.2 lineto
stroke
newpath
58857 33932.5 moveto
57844.7 32414 lineto
stroke
newpath
60375.6 33876.3 moveto
60488.1 33876.3 lineto
60600.6 33820 lineto
60656.8 33763.8 lineto
60713 33651.3 lineto
60769.3 33426.3 lineto
60769.3 33145.1 lineto
60713 32920.1 lineto
60656.8 32807.7 lineto
60600.6 32751.4 lineto
60488.1 32695.2 lineto
60375.6 32695.2 lineto
60263.1 32751.4 lineto
60206.9 32807.7 lineto
60150.6 32920.1 lineto
60094.4 33145.1 lineto
60094.4 33426.3 lineto
60150.6 33651.3 lineto
60206.9 33763.8 lineto
60263.1 33820 lineto
60375.6 33876.3 lineto
stroke
newpath
61275.5 32807.7 moveto
61331.7 32751.4 lineto
61275.5 32695.2 lineto
61219.2 32751.4 lineto
61275.5 32807.7 lineto
61275.5 32695.2 lineto
stroke
newpath
62456.6 32695.2 moveto
61781.7 32695.2 lineto
stroke
newpath
62119.1 32695.2 moveto
62119.1 33876.3 lineto
62006.6 33707.5 lineto
61894.1 33595.1 lineto
61781.7 33538.8 lineto
stroke
newpath
62906.5 33763.8 moveto
62962.8 33820 lineto
63075.2 33876.3 lineto
63356.5 33876.3 lineto
63468.9 33820 lineto
63525.2 33763.8 lineto
63581.4 33651.3 lineto
63581.4 33538.8 lineto
63525.2 33370.1 lineto
62850.3 32695.2 lineto
63581.4 32695.2 lineto
stroke
newpath
64593.8 33876.3 moveto
64368.8 33876.3 lineto
64256.4 33820 lineto
64200.1 33763.8 lineto
64087.6 33595.1 lineto
64031.4 33370.1 lineto
64031.4 32920.1 lineto
64087.6 32807.7 lineto
64143.9 32751.4 lineto
64256.4 32695.2 lineto
64481.3 32695.2 lineto
64593.8 32751.4 lineto
64650.1 32807.7 lineto
64706.3 32920.1 lineto
64706.3 33201.4 lineto
64650.1 33313.8 lineto
64593.8 33370.1 lineto
64481.3 33426.3 lineto
64256.4 33426.3 lineto
64143.9 33370.1 lineto
64087.6 33313.8 lineto
64031.4 33201.4 lineto
stroke
newpath
65156.2 33876.3 moveto
65156.2 33651.3 lineto
stroke
newpath
65606.2 33876.3 moveto
65606.2 33651.3 lineto
stroke
newpath
67349.7 32245.2 moveto
67293.5 32301.5 lineto
67181 32470.2 lineto
67124.7 32582.7 lineto
67068.5 32751.4 lineto
67012.3 33032.6 lineto
67012.3 33257.6 lineto
67068.5 33538.8 lineto
67124.7 33707.5 lineto
67181 33820 lineto
67293.5 33988.8 lineto
67349.7 34045 lineto
stroke
newpath
68305.8 33876.3 moveto
68080.9 33876.3 lineto
67968.4 33820 lineto
67912.1 33763.8 lineto
67799.7 33595.1 lineto
67743.4 33370.1 lineto
67743.4 32920.1 lineto
67799.7 32807.7 lineto
67855.9 32751.4 lineto
67968.4 32695.2 lineto
68193.4 32695.2 lineto
68305.8 32751.4 lineto
68362.1 32807.7 lineto
68418.3 32920.1 lineto
68418.3 33201.4 lineto
68362.1 33313.8 lineto
68305.8 33370.1 lineto
68193.4 33426.3 lineto
67968.4 33426.3 lineto
67855.9 33370.1 lineto
67799.7 33313.8 lineto
67743.4 33201.4 lineto
stroke
newpath
69824.4 32695.2 moveto
69824.4 33876.3 lineto
stroke
newpath
70330.6 32695.2 moveto
70330.6 33313.8 lineto
70274.3 33426.3 lineto
70161.9 33482.6 lineto
69993.1 33482.6 lineto
69880.6 33426.3 lineto
69824.4 33370.1 lineto
stroke
newpath
71061.8 32695.2 moveto
70949.3 32751.4 lineto
70893 32807.7 lineto
70836.8 32920.1 lineto
70836.8 33257.6 lineto
70893 33370.1 lineto
70949.3 33426.3 lineto
71061.8 33482.6 lineto
71230.5 33482.6 lineto
71343 33426.3 lineto
71399.2 33370.1 lineto
71455.5 33257.6 lineto
71455.5 32920.1 lineto
71399.2 32807.7 lineto
71343 32751.4 lineto
71230.5 32695.2 lineto
71061.8 32695.2 lineto
stroke
newpath
72130.4 32695.2 moveto
72017.9 32751.4 lineto
71961.6 32863.9 lineto
71961.6 33876.3 lineto
stroke
newpath
73030.3 32751.4 moveto
72917.8 32695.2 lineto
72692.8 32695.2 lineto
72580.3 32751.4 lineto
72524.1 32863.9 lineto
72524.1 33313.8 lineto
72580.3 33426.3 lineto
72692.8 33482.6 lineto
72917.8 33482.6 lineto
73030.3 33426.3 lineto
73086.5 33313.8 lineto
73086.5 33201.4 lineto
72524.1 33088.9 lineto
stroke
newpath
73536.4 32751.4 moveto
73648.9 32695.2 lineto
73873.9 32695.2 lineto
73986.4 32751.4 lineto
74042.6 32863.9 lineto
74042.6 32920.1 lineto
73986.4 33032.6 lineto
73873.9 33088.9 lineto
73705.2 33088.9 lineto
73592.7 33145.1 lineto
73536.4 33257.6 lineto
73536.4 33313.8 lineto
73592.7 33426.3 lineto
73705.2 33482.6 lineto
73873.9 33482.6 lineto
73986.4 33426.3 lineto
stroke
newpath
74436.3 32245.2 moveto
74492.6 32301.5 lineto
74605.1 32470.2 lineto
74661.3 32582.7 lineto
74717.5 32751.4 lineto
74773.8 33032.6 lineto
74773.8 33257.6 lineto
74717.5 33538.8 lineto
74661.3 33707.5 lineto
74605.1 33820 lineto
74492.6 33988.8 lineto
74436.3 34045 lineto
stroke
newpath
76573.6 32245.2 moveto
76517.3 32301.5 lineto
76404.8 32470.2 lineto
76348.6 32582.7 lineto
76292.3 32751.4 lineto
76236.1 33032.6 lineto
76236.1 33257.6 lineto
76292.3 33538.8 lineto
76348.6 33707.5 lineto
76404.8 33820 lineto
76517.3 33988.8 lineto
76573.6 34045 lineto
stroke
newpath
77023.5 33482.6 moveto
77023.5 32695.2 lineto
stroke
newpath
77023.5 33370.1 moveto
77079.7 33426.3 lineto
77192.2 33482.6 lineto
77361 33482.6 lineto
77473.4 33426.3 lineto
77529.7 33313.8 lineto
77529.7 32695.2 lineto
stroke
newpath
78260.9 32695.2 moveto
78148.4 32751.4 lineto
78092.1 32807.7 lineto
78035.9 32920.1 lineto
78035.9 33257.6 lineto
78092.1 33370.1 lineto
78148.4 33426.3 lineto
78260.9 33482.6 lineto
78429.6 33482.6 lineto
78542.1 33426.3 lineto
78598.3 33370.1 lineto
78654.6 33257.6 lineto
78654.6 32920.1 lineto
78598.3 32807.7 lineto
78542.1 32751.4 lineto
78429.6 32695.2 lineto
78260.9 32695.2 lineto
stroke
newpath
78992 33482.6 moveto
79442 33482.6 lineto
stroke
newpath
79160.7 33876.3 moveto
79160.7 32863.9 lineto
79217 32751.4 lineto
79329.5 32695.2 lineto
79442 32695.2 lineto
stroke
newpath
80735.5 33482.6 moveto
80735.5 32301.5 lineto
stroke
newpath
80735.5 33426.3 moveto
80848 33482.6 lineto
81073 33482.6 lineto
81185.5 33426.3 lineto
81241.7 33370.1 lineto
81298 33257.6 lineto
81298 32920.1 lineto
81241.7 32807.7 lineto
81185.5 32751.4 lineto
81073 32695.2 lineto
80848 32695.2 lineto
80735.5 32751.4 lineto
stroke
newpath
81972.9 32695.2 moveto
81860.4 32751.4 lineto
81804.2 32863.9 lineto
81804.2 33876.3 lineto
stroke
newpath
82929 32695.2 moveto
82929 33313.8 lineto
82872.8 33426.3 lineto
82760.3 33482.6 lineto
82535.3 33482.6 lineto
82422.8 33426.3 lineto
stroke
newpath
82929 32751.4 moveto
82816.5 32695.2 lineto
82535.3 32695.2 lineto
82422.8 32751.4 lineto
82366.6 32863.9 lineto
82366.6 32976.4 lineto
82422.8 33088.9 lineto
82535.3 33145.1 lineto
82816.5 33145.1 lineto
82929 33201.4 lineto
stroke
newpath
83322.7 33482.6 moveto
83772.7 33482.6 lineto
stroke
newpath
83491.4 33876.3 moveto
83491.4 32863.9 lineto
83547.7 32751.4 lineto
83660.2 32695.2 lineto
83772.7 32695.2 lineto
stroke
newpath
84616.3 32751.4 moveto
84503.8 32695.2 lineto
84278.8 32695.2 lineto
84166.4 32751.4 lineto
84110.1 32863.9 lineto
84110.1 33313.8 lineto
84166.4 33426.3 lineto
84278.8 33482.6 lineto
84503.8 33482.6 lineto
84616.3 33426.3 lineto
84672.5 33313.8 lineto
84672.5 33201.4 lineto
84110.1 33088.9 lineto
stroke
newpath
85684.9 32695.2 moveto
85684.9 33876.3 lineto
stroke
newpath
85684.9 32751.4 moveto
85572.4 32695.2 lineto
85347.5 32695.2 lineto
85235 32751.4 lineto
85178.7 32807.7 lineto
85122.5 32920.1 lineto
85122.5 33257.6 lineto
85178.7 33370.1 lineto
85235 33426.3 lineto
85347.5 33482.6 lineto
85572.4 33482.6 lineto
85684.9 33426.3 lineto
stroke
newpath
86134.9 32245.2 moveto
86191.1 32301.5 lineto
86303.6 32470.2 lineto
86359.8 32582.7 lineto
86416.1 32751.4 lineto
86472.3 33032.6 lineto
86472.3 33257.6 lineto
86416.1 33538.8 lineto
86359.8 33707.5 lineto
86303.6 33820 lineto
86191.1 33988.8 lineto
86134.9 34045 lineto
stroke
showpage
grestore
%%EOF
